# probability 
0.749739390056
0.347626552025
0.740166747679
0.105528742289
0.514017265932
0.777196140874
0.244154100432
0.70686469809
0.9278927349
0.795964624713
0.787921978071
0.696655160744
0.0262847941964
0.426135084021
0.814540244536
0.156173660862
0.261795938353
0.121138386197
0.882756951304
0.7369203022
# an strange event
0.442108647458
0.889828438468
0.290251703398
0.0672396793052
0.213607026802
0.559487725377
0.950851913897
0.772352852024
0.460635012144
0.448260379747
0.245446104808
0.586631854122
0.968550457219
0.149144882368
0.93282162864
0.287646504848
0.25250020643
0.359194670006
0.715283625284
0.949063069467
0.845198763675
0.195332718659
0.814923807023
0.809591360844
0.231370303037
0.570731329761
0.45224522962
0.365671693715
0.689844391511
0.501323632264
0.108390040052
0.319040099028
0.978652223832
0.86684762829
0.318909185436
0.964246329084
0.608449691551
0.464748860159
0.360523117984
0.762683628131
0.973876480185
0.726279144019
0.524912147672
0.00962600227806
0.625007634023
0.81008081404
0.765935399282
0.593366031443
0.703968524441
0.134378044552
0.310412621083
0.539254545906
0.982463903378
0.61965397145
0.541839006003
0.751269471613
0.134170268304
0.12313967727
0.0271840122713
0.813374254764
0.976360237712
0.565029214423
0.226489213205
0.0338239864498
0.0367619633357
0.135955620712
0.541077758584
0.436784622177
0.339261177382
0.925092462111
0.155029954633
0.905870092632
0.89368486098
0.109243138868
0.503533967861
0.159188258887
0.646291152608
0.963486695047
0.978481152266
0.457206846344
